…
Generally extraction methods are wraps around `rvest::html_text2` and
`stringr::str_extract`. In the case of `extract_table` it would be
useful if we could not only pull the table as a `data.frame` (using
`rvest::html_table`) but add new URL columns based on columns that have
`a` tags attached to them. This is `extract_table` default behavior and
can’t be changed yet (work in progress).

Let’s check the resulting table from the fourth instruction:

``` r
tbl <- results[[4]]$result

print(tbl)
#> # A tibble: 43 x 11
#>    Pos   Swimmer  NOC   R1     SF    Final ...7  ...8  ...9  Swimmer_url NOC_url
#>    <chr> <chr>    <chr> <chr>  <chr> <chr> <chr> <chr> <lgl> <chr>       <chr>  
#>  1 1     Joseph … SGP   51.41… 50.8… 50.3… "Gol… "OR"  NA    /athletes/… /count…
#>  2 =2    Michael… USA   51.60… 51.5… 51.1… "Sil… ""    NA    /athletes/… /count…
#>  3 =2    Chad le… RSA   51.75… 51.4… 51.1… "Sil… ""    NA    /athletes/… /count…
#>  4 =2    László … HUN   51.52… 51.5… 51.1… "Sil… ""    NA    /athletes/… /count…
#>  5 5     Li Zhuh… CHN   51.78… 51.5… 51.2… ""    ""    NA    /athletes/… /count…
#>  6 6     Mehdy M… FRA   51.71… 51.7… 51.5… ""    ""    NA    /athletes/… /count…
#>  7 7     Tom Shi… USA   51.58… 51.6… 51.7… ""    ""    NA    /athletes/… /count…
#>  8 8     Aleksan… RUS   51.91… 51.7… 51.8… ""    ""    NA    /athletes/… /count…
#>  9 9     David M… AUS   51.81… 51.7… –     ""    ""    NA    /athletes/… /count…
#> 10 10    Konrad … POL   51.81… 51.8… –     ""    ""    NA    /athletes/… /count…
#> # … with 33 more rows
```
…
